Seg_7_proc/seg_7_proc_tb.vcd
$date
	Tue Apr 08 17:00:33 2025
$end
$version
	Icarus Verilog
$end
$timescale
	1ps
$end
$scope module seg_7_proc_tb $end
$var wire 7 ! test_seg_7 [6:0] $end
$var parameter 32 " DURATION $end
$var reg 1 # clk $end
$var reg 4 $ entradas [3:0] $end
$var reg 4 % test_BTN [3:0] $end
$var integer 32 & i [31:0] $end
$scope module UUT $end
$var wire 1 ' A $end
$var wire 1 ( B $end
$var wire 1 ) C $end
$var wire 1 * D $end
$var wire 7 + seg_7 [0:6] $end
$var wire 4 , BCD [3:0] $end
$var reg 7 - seg [0:6] $end
$upscope $end
$upscope $end
$enddefinitions $end
$comment Show the parameter values. $end
$dumpall
b1010 "
$end
#0
$dumpvars
bx -
bx ,
bx +
x*
x)
x(
x'
b0 &
bx %
bx $
0#
bx !
$end
#50000
1#
#100000
b1111110 !
b1111110 +
b1111110 -
0'
0(
0)
b0 ,
0*
0#
b1 &
b0 %
b0 $
#150000
1#
#200000
b110000 !
b110000 +
b110000 -
b1 ,
1*
0#
b10 &
b1 %
b1 $
#250000
1#
#300000
b1101101 !
b1101101 +
b1101101 -
1)
b10 ,
0*
0#
b11 &
b10 %
b10 $
#350000
1#
#400000
b1111001 !
b1111001 +
b1111001 -
b11 ,
1*
0#
b100 &
b11 %
b11 $
#450000
1#
#500000
b110011 !
b110011 +
b110011 -
1(
0)
b100 ,
0*
0#
b101 &
b100 %
b100 $
#550000
1#
#600000
b1011011 !
b1011011 +
b1011011 -
b101 ,
1*
0#
b110 &
b101 %
b101 $
#650000
1#
#700000
b1011111 !
b1011111 +
b1011111 -
1)
b110 ,
0*
0#
b111 &
b110 %
b110 $
#750000
1#
#800000
b1110000 !
b1110000 +
b1110000 -
b111 ,
1*
0#
b1000 &
b111 %
b111 $
#850000
1#
#900000
b1111111 !
b1111111 +
b1111111 -
1'
0(
0)
b1000 ,
0*
0#
b1001 &
b1000 %
b1000 $
#950000
1#
#1000000
b1111011 !
b1111011 +
b1111011 -
b1001 ,
1*
0#
b1010 &
b1001 %
b1001 $
